Homework #6
…
dogs <- dogs %>% mutate_at(.funs = as.numeric, .vars = 4:6)

## Warning: NAs introduced by coercion

dogs$size <- as.factor(dogs$size)
dogs$size <- fct_rev(dogs$size)
dogs$type <- as.factor(dogs$type)
dogs %>% arrange(desc(intelligence))

## # A tibble: 171 x 6
##    breed        type         size   score popularity intelligence
##    <chr>        <fct>        <fct>  <dbl>      <dbl>        <dbl>
##  1 Afghan Hound hound        large   2.08         88           80
##  2 Basenji      hound        medium  2.51         93           79
##  3 Bulldog      non-sporting medium  0.99          6           78
##  4 Chow Chow    non-sporting medium  1.76         68           77
##  5 Borzoi       hound        large   1.89        102           76
##  6 Bloodhound   hound        large   1.66         48           75
##  7 Pekingese    toy          small   2.05         64           74
##  8 Beagle       hound        small   2.79          3           73
##  9 Mastiff      working      large   1.57         28           72
## 10 Basset Hound hound        small   2.54         41           71
## #  with 161 more rows
…
